<svg xmlns="http://www.w3.org/2000/svg" width="43" height="21" fill="none" viewBox="0 0 43 21">
    <path fill="#4855A9" fill-rule="evenodd" d="M33.469.573l8.542 8.543c.765.764.765 2.004 0 2.768l-8.542 8.543c-.765.764-2.004.764-2.768 0-.765-.765-.765-2.004 0-2.769l5.2-5.2H1.958C.876 12.457 0 11.58 0 10.5s.876-1.958 1.958-1.958H35.9l-5.2-5.2c-.765-.765-.765-2.004 0-2.769.764-.764 2.003-.764 2.768 0z" clip-rule="evenodd"/>
</svg>
